<svg xmlns="http://www.w3.org/2000/svg" width="101.849" height="97.408" viewBox="0 0 101.849 97.408">
  <g id="Grupo_9664" data-name="Grupo 9664" transform="translate(0.713 0.672)">
    <path id="Trazado_4707" data-name="Trazado 4707" d="M78.825,39.8C72.41,59.654,60.5,72.255,39.279,72.255S8.074,60.464.857,34.542C-4.737,14.451,18.087,0,39.306,0S84.952,20.837,78.823,39.8" transform="translate(25.894 0) rotate(21)" stroke="#fff" stroke-width="1"/>
    <g id="phone-ringing" transform="translate(33.236 31.678)">
      <path id="Trazado_45400" data-name="Trazado 45400" d="M24.592,34.216a9.533,9.533,0,0,1-3.271-.584A34.875,34.875,0,0,1,8.657,25.56,34.873,34.873,0,0,1,.585,12.9,9.464,9.464,0,0,1,.1,8.244,9.705,9.705,0,0,1,5.09,1.14,9.528,9.528,0,0,1,9.652,0,1.069,1.069,0,0,1,10.7.845l1.678,7.832a1.069,1.069,0,0,1-.289.98L9.218,12.525A28.145,28.145,0,0,0,21.692,25l2.868-2.868a1.07,1.07,0,0,1,.98-.289l7.832,1.678a1.069,1.069,0,0,1,.845,1.045,9.527,9.527,0,0,1-1.14,4.562,9.705,9.705,0,0,1-7.1,4.988A9.51,9.51,0,0,1,24.592,34.216ZM8.8,2.185a7.492,7.492,0,0,0-6.2,9.98A32.431,32.431,0,0,0,22.051,31.622a7.492,7.492,0,0,0,9.98-6.2L25.66,24.054l-2.995,2.995a1.069,1.069,0,0,1-1.211.212,30.276,30.276,0,0,1-14.5-14.5,1.069,1.069,0,0,1,.212-1.211l2.995-2.995Z" transform="translate(0 0)" fill="#fff"/>
      <path id="Trazado_45401" data-name="Trazado 45401" d="M257.127,18.177a1.069,1.069,0,0,1-1.069-1.069A14.986,14.986,0,0,0,241.089,2.138a1.069,1.069,0,1,1,0-2.138A17.107,17.107,0,0,1,258.2,17.107,1.069,1.069,0,0,1,257.127,18.177Z" transform="translate(-223.98)" fill="#fff"/>
      <path id="Trazado_45402" data-name="Trazado 45402" d="M252.851,77.9a1.069,1.069,0,0,1-1.069-1.069,10.7,10.7,0,0,0-10.692-10.692,1.069,1.069,0,1,1,0-2.138A12.845,12.845,0,0,1,253.92,76.831,1.069,1.069,0,0,1,252.851,77.9Z" transform="translate(-223.98 -59.723)" fill="#fff"/>
      <path id="Trazado_45403" data-name="Trazado 45403" d="M248.574,137.623a1.069,1.069,0,0,1-1.069-1.069,6.423,6.423,0,0,0-6.415-6.415,1.069,1.069,0,1,1,0-2.138,8.563,8.563,0,0,1,8.554,8.554A1.069,1.069,0,0,1,248.574,137.623Z" transform="translate(-223.98 -119.446)" fill="#fff"/>
    </g>
  </g>
</svg>
