<svg xmlns="http://www.w3.org/2000/svg" width="101.849" height="97.408" viewBox="0 0 101.849 97.408">
  <g id="Grupo_9665" data-name="Grupo 9665" transform="translate(0.713 0.672)">
    <path id="Trazado_4707" data-name="Trazado 4707" d="M78.825,39.8C72.41,59.654,60.5,72.255,39.279,72.255S8.074,60.464.857,34.542C-4.737,14.451,18.087,0,39.306,0S84.952,20.837,78.823,39.8" transform="translate(25.894 0) rotate(21)" stroke="#fff" stroke-width="1"/>
    <g id="clock" transform="translate(33.065 30.262)">
      <g id="Grupo_9604" data-name="Grupo 9604" transform="translate(15.803 7.948)">
        <g id="Grupo_9603" data-name="Grupo 9603">
          <path id="Trazado_45404" data-name="Trazado 45404" d="M243.6,130.986l-4.777-3.582v-7.3a1.327,1.327,0,1,0-2.654,0v7.961a1.324,1.324,0,0,0,.531,1.061l5.307,3.981a1.327,1.327,0,0,0,1.592-2.123Z" transform="translate(-236.169 -118.779)" fill="#fff"/>
        </g>
      </g>
      <g id="Grupo_9606" data-name="Grupo 9606" transform="translate(0)">
        <g id="Grupo_9605" data-name="Grupo 9605">
          <path id="Trazado_45405" data-name="Trazado 45405" d="M17.13,0a17.13,17.13,0,1,0,17.13,17.13A17.148,17.148,0,0,0,17.13,0Zm0,31.605A14.476,14.476,0,1,1,31.605,17.13,14.494,14.494,0,0,1,17.13,31.605Z" fill="#fff"/>
        </g>
      </g>
    </g>
  </g>
</svg>
