<svg xmlns="http://www.w3.org/2000/svg" width="101.849" height="97.408" viewBox="0 0 101.849 97.408">
  <g id="Grupo_9666" data-name="Grupo 9666" transform="translate(0.713 0.672)">
    <path id="Trazado_4707" data-name="Trazado 4707" d="M78.825,39.8C72.41,59.654,60.5,72.255,39.279,72.255S8.074,60.464.857,34.542C-4.737,14.451,18.087,0,39.306,0S84.952,20.837,78.823,39.8" transform="translate(25.894 0) rotate(21)" stroke="#fff" stroke-width="1"/>
    <g id="noun_comment_3267683" transform="translate(32.072 31.484)">
      <g id="Grupo_7098" data-name="Grupo 7098" transform="translate(0 0)">
        <path id="Trazado_8636" data-name="Trazado 8636" d="M77.182,96.91A1.882,1.882,0,1,1,75.3,98.792,1.881,1.881,0,0,1,77.182,96.91Z" transform="translate(-67.154 -86.427)" fill="#fff" fill-rule="evenodd"/>
        <path id="Trazado_8637" data-name="Trazado 8637" d="M141.122,96.91a1.882,1.882,0,1,1-1.882,1.882A1.881,1.881,0,0,1,141.122,96.91Z" transform="translate(-124.178 -86.427)" fill="#fff" fill-rule="evenodd"/>
        <path id="Trazado_8638" data-name="Trazado 8638" d="M205.062,96.91a1.882,1.882,0,1,1-1.882,1.882A1.881,1.881,0,0,1,205.062,96.91Z" transform="translate(-181.201 -86.427)" fill="#fff" fill-rule="evenodd"/>
        <path id="Trazado_8639" data-name="Trazado 8639" d="M11.727,25.636A2.073,2.073,0,0,0,13.58,26.79H27.3a.915.915,0,0,1,.585.212l3.979,2.747V27.706a.917.917,0,0,1,.916-.916h1.327a2.068,2.068,0,0,0,2.062-2.062V11.767a2.068,2.068,0,0,0-2.062-2.062h-.219v10.5a4.541,4.541,0,0,1-4.521,4.521H13.039l-1.312.905ZM33.889,7.873h.219A3.9,3.9,0,0,1,38,11.767V24.728a3.9,3.9,0,0,1-3.894,3.894H33.7V31.49a.917.917,0,0,1-1.434.751l-5.24-3.618H13.58a3.9,3.9,0,0,1-3.364-1.943L6.645,29.145a.913.913,0,0,1-1.43-.751l0-3.664h-.69A4.541,4.541,0,0,1,0,20.209V4.521A4.541,4.541,0,0,1,4.521,0H29.369a4.541,4.541,0,0,1,4.521,4.521ZM29.369,1.833H4.521A2.693,2.693,0,0,0,1.832,4.521V20.209A2.693,2.693,0,0,0,4.521,22.9H6.127a.917.917,0,0,1,.916.916v2.84l5.133-3.544a.915.915,0,0,1,.585-.212H29.369a2.693,2.693,0,0,0,2.688-2.688V4.521a2.693,2.693,0,0,0-2.688-2.688Z" transform="translate(0 0)" fill="#fff"/>
      </g>
    </g>
  </g>
</svg>
