<svg xmlns="http://www.w3.org/2000/svg" width="45.293" height="38.897" viewBox="0 0 45.293 38.897">
  <g id="icon" transform="translate(-79 -592)">
    <g id="Grupo_30500" data-name="Grupo 30500" transform="translate(79 592)">
      <path id="Trazado_4707" data-name="Trazado 4707" d="M2407.157,1731.064c-3.452,10.688-9.864,17.472-21.289,17.472s-16.8-6.348-20.684-20.3c-3.011-10.815,9.276-18.595,20.7-18.595s24.572,11.217,21.273,21.427" transform="translate(-2364.724 -1709.638)" fill="#231f20"/>
      <path id="Trazado_4707-2" data-name="Trazado 4707" d="M2407.157,1731.064c-3.452,10.688-9.864,17.472-21.289,17.472s-16.8-6.348-20.684-20.3c-3.011-10.815,9.276-18.595,20.7-18.595s24.572,11.217,21.273,21.427" transform="translate(-2362.38 -1709.638)" fill="#fff"/>
    </g>
    <g id="noun_Download_3676974" transform="translate(89.023 597.398)">
      <g id="Grupo_30470" data-name="Grupo 30470" transform="translate(0 0)">
        <path id="Trazado_45761" data-name="Trazado 45761" d="M8.385,13.14l5.436,5.694V3.778a1.078,1.078,0,0,1,2.157,0v15.1l5.565-5.738A1.068,1.068,0,1,1,23.1,14.607l-7.42,7.679h0c-.043.043-.086.086-.129.086l-.043.043a.99.99,0,0,1-.6.173h-.216c-.043,0-.129-.043-.173-.043a.042.042,0,0,1-.043-.043c-.043-.043-.086-.043-.129-.086a.042.042,0,0,1-.043-.043c-.043-.043-.086-.043-.086-.086h0L6.832,14.607A1.068,1.068,0,1,1,8.385,13.14ZM3.078,27.98H26.805a1.078,1.078,0,1,0,0-2.157H3.078a1.078,1.078,0,0,0,0,2.157Z" transform="translate(-2 -2.7)"/>
      </g>
    </g>
  </g>
</svg>
