<?xml version="1.0" encoding="utf-8"?>
<!-- Generator: Adobe Illustrator 25.2.1, SVG Export Plug-In . SVG Version: 6.00 Build 0)  -->
<svg version="1.1" id="Capa_1" xmlns="http://www.w3.org/2000/svg" xmlns:xlink="http://www.w3.org/1999/xlink" x="0px" y="0px"
	 viewBox="0 0 265.6 46.8" style="enable-background:new 0 0 265.6 46.8;" xml:space="preserve">
<style type="text/css">
	.st0{display:none;}
	.st1{display:inline;fill:none;}
	.st2{display:inline;}
	.st3{fill:none;}
</style>
<g id="Trazado_44214" transform="translate(0 28.042)" class="st0">
	<path class="st1" d="M329-35.2L0-21.6v40.4h329V-35.2z"/>
	<path class="st2" d="M328.4-34.2L0.6-20.6v38.4h327.8V-34.2 M329-35.2v54H0v-40.4L329-35.2z"/>
</g>
<g id="Trazado_44214_1_" transform="translate(0 28.042)">
	<path class="st3" d="M0.6-28l265,11.9v35.3H0.6V-28z"/>
	<path d="M1.1-27.1l264,11.9v33.5H1.1V-27.1 M0.6-28v47.2h265v-35.3L0.6-28z"/>
</g>
</svg>
