<?xml version="1.0" encoding="utf-8"?>
<!-- Generator: Adobe Illustrator 25.2.3, SVG Export Plug-In . SVG Version: 6.00 Build 0)  -->
<svg version="1.1" id="Capa_1" xmlns="http://www.w3.org/2000/svg" xmlns:xlink="http://www.w3.org/1999/xlink" x="0px" y="0px"
	 viewBox="0 0 92 92" style="enable-background:new 0 0 92 92;" xml:space="preserve">
<style type="text/css">
	.st0{fill:#21C0A6;stroke:#FFFFFF;stroke-width:2;}
	.st1{fill:#FFFFFF;}
</style>
<g id="Grupo_9600" transform="translate(-6124.273 -2611.011)">
	<g id="Componente_15_1_1_" transform="translate(6120.635 2605.407)">
		<g id="ojo_1_" transform="translate(14.011 12.928)">
			<g id="Grupo_9511_1_" transform="translate(0 0)">
				<g transform="matrix(1, 0, 0, 1, -10.37, -7.32)">
					<path id="Trazado_4707-2_1_" class="st0" d="M84.4,65.8c-15.3,19-33.6,27.8-56.8,18.9s-29.1-26-26.1-57.3
						C3.8,3.1,34.8-3.1,57.9,5.7S99,47.6,84.4,65.8"/>
				</g>
			</g>
		</g>
	</g>
	<g id="Grupo_9560" transform="translate(5733.857 2244.563)">
		<path id="Trazado_44314" class="st1" d="M416,421.9l-0.3-0.3c-0.7-0.7-1.5-1.3-1.5-2.5c0-0.1,0.1-0.2,0.1-0.3
			c0.7-1.7,1.5-2.1,3.3-1.7c0.4,0.1,0.8,0.4,0.9,0.8c0.1,0.5,0.3,1,0.5,1.5c-0.7-1.9-1.4-3.4-1.9-5.1c-0.1-0.4-0.4-0.9,0-1.3
			c0.5-0.2,1.1-0.3,1.7-0.2c0.4,0,0.8,0.1,1.1,0.3c0.7,0.3,1.2,0.9,1.3,1.6c0.1,0.5-0.2,0.8-0.4,1.2c-0.6,0.9-0.5,2.1,0.2,2.9
			c0.7,0.7,1.5,0.8,2.8,0.3c0.1-0.1,0.3-0.1,0.4-0.1c0.3,0,0.5,0.2,0.7,0.4c0.6,0.7,1.1,1.6,1.8,2.3c0.6-0.8,0.8-1.8,1.5-2.4
			c1.1-0.6,1.2-1.6,1.3-2.6c0-0.2,0.1-0.3,0.1-0.5c0.5-0.7,0.5-1.8,1.5-2.1c0.5,0.3,0.4,0.8,0.4,1.3c0,0.9,0,1.9,0,2.8
			c0,1.2,0.6,1.5,1.7,1.1c0.8-0.3,1.1-0.9,1.6-1.5c1-0.4,1.4,0.4,1.4,1.1c0,0.5,0.4,0.4,0.4,0.7c0,0.5-0.1,0.9-0.4,1.3
			c-0.3,0.7-0.7,1.3-1.1,1.8l-0.3,0.7c0.1,0.9-0.6,1.6-0.9,2.4c-0.7,1.9-1.5,3.7-2.5,5.4c-0.6,0.9-1.6,1.6-2.7,1.7l-0.9,0.3
			c-0.8,0.5-1.8,0.5-2.6,0l-0.7-0.1l0,0c0-0.4-0.5-0.1-0.5-0.5c-0.2-0.2-0.6-0.4-0.6-0.8c0-0.1,0-0.1-0.1-0.1l0,0
			c-0.5-0.2-0.8-0.7-0.9-1.2L422,430c-1.4-1.4-2.7-3.1-3.6-4.9l-0.3-0.5c-0.4-0.2-0.8-0.6-0.9-1.1c-0.3-0.2-0.4-0.4-0.5-0.8
			C416.3,422.6,416.1,422.3,416,421.9z"/>
		<path id="Trazado_44315" class="st1" d="M439.1,400.6c0.1,0,0.1-0.1,0.1-0.2c0.3-0.9,0.8-1.8,1.5-2.4c0.6-0.7,0.8-1.7,1.7-2.1
			c0.1,0,0.1-0.1,0.1-0.2c0.1-0.3,0.2-0.6,0.5-0.7l0.2-0.3c0-0.2,0.2-0.4,0.4-0.5c0.1,0,0.1-0.1,0.1-0.1l0,0
			c0.1-0.5,0.4-0.9,0.8-1.1l1-1.3c0.1-0.4,0.3-0.7,0.7-0.8l0.5-0.4c1.4-1.2,3.4-1.5,5.2-0.8c0.1,0.1,0.1,0.1,0.2,0
			c0.8,0,1.6,0.6,1.7,1.4c-0.1,0.4,0,0.8-0.2,1.2c-0.2,0.2-0.2,0.6-0.5,0.7l0,0c-0.1,0.4-0.4,0.8-0.7,0.9c-0.1,0-0.2,0.1-0.2,0.2
			l0,0c-0.2,0.7-0.6,1.3-1.2,1.6l0,0c-0.8,1.6-1.8,3-3.1,4.3c-1,1.2-1.9,2.6-2.6,4c0,0.4-0.3,0.8-0.6,1c-0.3,0.3-0.4,0.6-0.5,0.9
			c0,0.4-0.1,0.7-0.3,1c-1,1.7-2,3.4-2.9,5.1c-0.2,0.3-0.3,0.6-0.4,0.8c0,0.1-0.1,0.2-0.1,0.3c-0.3,0.5-0.4,1.1-1,1.4
			c-0.7,0-1.3,0.3-1.9,0.7c-0.2,0.2-0.4,0.4-0.7,0.4c-0.2,0.1-0.5-0.1-0.5,0.1s0.3,0.4,0.4,0.6c0.1,0.3,0.1,0.6-0.1,0.8
			c-0.5,0.7-0.9,0.7-1.2-0.2c-0.6-1.9-0.9-2-2.8-2.2c-1.2-0.1-0.7-1.1-0.8-1.7c0-0.1,0-0.2,0.1-0.3c0.4-1.1,1.1-2.2,1.9-3.1l0,0
			c0.6-1.7,1.6-3.3,2.8-4.7l0.8-1.3C437.4,402.5,438.1,401.4,439.1,400.6z"/>
		<path id="Trazado_44316" class="st1" d="M450.9,395.9c0.3-0.6,0.7-1.1,1.2-1.6c0.1,0.7,0,1.4-0.2,2L450.9,395.9z"/>
		<path id="Trazado_44318" class="st1" d="M412.8,415.5l0.7-0.8c0.7-0.5,1.5-1,2.3-1.2c0.7,0,0.5,0.5,0.4,0.8
			c-0.1,0.5-0.3,1-0.5,1.4c-0.3,1-0.9,1.9-1.1,3c-0.1,0.2-0.2,0.4-0.4,0.3l-0.4-0.3c-0.4-0.4-0.9-0.7-1-1.3
			C412.4,416.8,412.4,416.1,412.8,415.5z"/>
		<path id="Trazado_44319" class="st1" d="M431.8,413.1c0,0.3,0,0.6,0,0.9c0,0.5,0.1,0.8,0.7,0.6c1.5-0.3,2.7,0.7,2.8,2.5
			c0.2,0.3,0,0.5-0.2,0.7c-0.2,1.1-1.1,1.9-2.1,2.1s-1.7-0.3-1.7-1.3s0-2.1,0-3.2c0-0.4,0.1-0.8-0.2-1.1c-0.2-0.2-0.1-0.4,0-0.6
			C431.3,413.4,431.4,413,431.8,413.1z"/>
		<path id="Trazado_44320" class="st1" d="M414.1,419c0.5-1.1,0.9-2.2,1.3-3.3c0.2,0,0.3,0.1,0.4,0.3c0.2,0.9,0.9,0.7,1.4,0.5
			c0.6-0.2,0.2-0.7,0.1-1.1c-0.3-0.7-0.5-1.4-0.5-2.1l0.5-0.1c0.4,1.1,0.7,2.2,1.1,3.3c0.5,1.2,0.9,2.4,1.2,3.6
			c-0.5-0.4-0.8-1-0.9-1.7c-0.2-0.8-0.7-0.9-1.4-1.1c-1.8-0.4-2.2,0.8-2.8,1.9L414.1,419z"/>
		<path id="Trazado_44321" class="st1" d="M423.8,418.3l0.7,0.9c-1.4,0.9-2.5,0.9-3.5,0c-1-1-1.1-2.5-0.2-3.6
			c0.2-0.3,0.4-0.5,0.4-0.8l0.5,0.4l0.1,0.2c0,0.1,0,0.2-0.1,0.3c-0.4,0.5-0.6,1.1-0.6,1.7c-0.1,0.8,0.4,1.5,1.2,1.7
			C423.1,419.4,423.5,418.9,423.8,418.3z"/>
		<path id="Trazado_44322" class="st1" d="M435.2,417.8l0.2-0.7c0.2,0.6,0.5,0.4,0.9,0.2c0.4,0.5,0.6,1.1,0.6,1.7
			c-0.1,0.2,0.2,0.7-0.4,0.7c-0.2-0.3-0.4,0.2-0.6,0.1C436.5,418.8,435.8,418.3,435.2,417.8z"/>
		<path id="Trazado_44323" class="st1" d="M429.7,417.1l0.3-0.3c0,1.2,0,2.3-1.4,2.9v-0.5C428.5,418.4,428.9,417.6,429.7,417.1z"/>
		<path id="Trazado_44324" class="st1" d="M437,419c-0.1,0-0.1,0-0.2,0.1c-0.4-0.5-0.6-1.1-0.5-1.7c0-0.3,0-0.6,0.1-0.9
			c0-0.3-0.1-0.5,0.2-0.7l0.5-0.5c0.2-0.1,0.3,0.1,0.3,0.2c-0.1,0.5-0.3,1.1,0.5,1.3c0.1,0.1,0.1,0.2,0.1,0.3c0,0.1-0.1,0.2-0.2,0.2
			c-0.5,0.2-1,0.4-0.6,1c0,0.1,0.1,0.2,0.1,0.3C437.3,418.8,437.1,418.9,437,419L437,419z"/>
		<path id="Trazado_44325" class="st1" d="M437.2,415.5l-0.2-0.2c0.5-0.6,1.3-0.8,2.1-0.7c0,0.1,0,0.2,0,0.2c0,0.1,0,0.1-0.1,0.2
			s-0.2,0.2-0.3,0.2C438.3,415.2,437.8,415.6,437.2,415.5z"/>
		<path id="Trazado_44326" class="st1" d="M436.6,415.8c0,0.2,0,0.5-0.2,0.7c-0.3-0.2-0.8-0.3-0.5-0.8
			C436,415.3,436.3,415.6,436.6,415.8z"/>
		<path id="Trazado_44327" class="st1" d="M416.7,413.3c0.5,0.9,0.8,1.9,1.1,2.9c0.1,0.3,0.1,0.6-0.3,0.7c-0.5,0-1.1,0-1.6,0
			c-0.7-0.1-0.1-0.6-0.3-0.9c0.2-0.9,0.5-1.8,0.9-2.6C416.6,413.3,416.6,413.3,416.7,413.3z"/>
		<path id="Trazado_44328" class="st1" d="M416.5,413.4c-0.2,0.9-0.5,1.8-0.9,2.6l-0.2-0.2c0-0.7,1-1.3,0.4-2.2
			C415.9,413.3,416.2,413.4,416.5,413.4z"/>
		<path id="Trazado_44329" class="st1" d="M432.9,415c0.7-0.1,1.5,0.3,1.7,1c0.4,0.9,0.3,1.9-0.3,2.7c-0.5,0.6-1.3,0.9-2.1,0.8
			c-0.5-0.1-0.5-0.4-0.5-0.8c0-0.9,0-1.7,0-2.6C431.8,415.2,432.1,414.9,432.9,415z"/>
		<path id="Trazado_44330" class="st1" d="M423.8,418.3c-0.1,0.4,0.2,1-0.3,1.1c-0.7,0.2-1.5,0.1-2.1-0.4c-0.9-0.9-0.9-2.4,0.1-3.4
			c0.1-0.1,0.2-0.2,0.3-0.2c1.2,0.5,1.6,1.6,2.1,2.6l0,0C423.8,418.1,423.8,418.2,423.8,418.3z"/>
		<path id="Trazado_44331" class="st1" d="M438.2,416.7l-0.3,0.3c-1.4-0.1-1.4-0.1-0.7-1.4c0.4-0.4,1-0.6,1.6-0.5
			C439.1,415.7,438.6,416.2,438.2,416.7z"/>
		<path id="Trazado_44332" class="st1" d="M437.8,417.1c-0.1,0.5-0.3,1-0.6,1.4C436.5,417.6,436.6,417.3,437.8,417.1z"/>
	</g>
</g>
</svg>
