<?xml version="1.0" encoding="utf-8"?>
<!-- Generator: Adobe Illustrator 25.2.1, SVG Export Plug-In . SVG Version: 6.00 Build 0)  -->
<svg version="1.1" xmlns="http://www.w3.org/2000/svg" xmlns:xlink="http://www.w3.org/1999/xlink" x="0px" y="0px"
	 viewBox="0 0 59.1 44.2" style="enable-background:new 0 0 59.1 44.2;" xml:space="preserve">
<style type="text/css">
	.st0{fill:#799F7B;}
	.st1{fill:#F2DBAE;}
	.st2{fill:none;stroke:#707070;}
	.st3{fill:#0F1110;}
	.st4{fill:#2830CE;}
	.st5{fill:#FFFFFF;}
	.st6{fill:#0C0E0D;}
	.st7{display:none;}
	.st8{display:inline;}
</style>
<g id="Capa_1">
	<g id="Grupo_30503" transform="translate(-319.059 -405.955)">
		<path id="Trazado_44354" d="M319.1,406l59.1,2v42.2H329L319.1,406z"/>
		<g id="Componente_24" transform="translate(332 410.482)">
			<path id="Trazado_44001" class="st0" d="M25.3,35.1c0,0,1.6-2.6-1.3-5.8C23.2,31.3,23.7,33.6,25.3,35.1z"/>
			<path id="Trazado_44002" class="st0" d="M17.1,36c0,0,3.2-2.9,0.9-6.4C18.1,29.6,15.9,31.9,17.1,36z"/>
			<g id="Grupo_2000" transform="translate(2.414 7.885)">
				<g id="Grupo_1999" transform="translate(0 0)">
					<g id="Grupo_1998">
						<path id="Trazado_44003" class="st1" d="M0,12.1C0,12.1,3.7,0,16.1,0C23.2-0.1,30,3.2,34.3,8.8c0,0-4.5,10.6-16.1,10.6
							C11.4,19.5,4.8,16.9,0,12.1z"/>
					</g>
				</g>
				<path id="Trazado_44024" class="st2" d="M22.1,25.2"/>
			</g>
			<g id="Grupo_2004" transform="translate(3.815 18.113)">
				<g id="Grupo_2003" transform="translate(0)">
					<g id="Grupo_2002">
						<g id="Grupo_2001">
							<path id="Trazado_44004" class="st3" d="M0.1,0.1c0.1,0,0.1-0.1,0-0.1S0,0.1,0.1,0.1z"/>
						</g>
					</g>
				</g>
			</g>
			<g id="Grupo_2014" transform="translate(14.858 6.961)">
				<g id="Grupo_2013" transform="translate(0)">
					<g id="Grupo_2012">
						<g id="Grupo_2011">
							<path id="Trazado_44007" class="st4" d="M0,0.1C0.1,0.1,0.1,0,0,0.1C0,0,0,0.1,0,0.1z"/>
						</g>
					</g>
				</g>
			</g>
			<g id="Grupo_2018" transform="translate(24.022 28.404)">
				<g id="Grupo_2017" transform="translate(0)">
					<g id="Grupo_2016">
						<g id="Grupo_2015">
							<path id="Trazado_44008" class="st4" d="M0,0C0,0,0,0.1,0,0C0.1,0.1,0.1,0,0,0z"/>
						</g>
					</g>
				</g>
			</g>
			<g id="Grupo_2021" transform="translate(12.518 0.966)">
				<g id="Grupo_2020">
					<g id="Grupo_2019">
						<path id="Trazado_44009" class="st0" d="M0.4,0c0,0-1.6,2.6,1.3,5.8C2.6,3.8,2.1,1.4,0.4,0z"/>
					</g>
				</g>
			</g>
			<g id="Grupo_2024" transform="translate(19.438)">
				<g id="Grupo_2023">
					<g id="Grupo_2022">
						<path id="Trazado_44010" class="st0" d="M1.7,0c0,0-3.2,2.9-0.9,6.4C0.8,6.4,3,4.2,1.7,0z"/>
					</g>
				</g>
			</g>
			<g id="Grupo_2027" transform="translate(27.092 2.253)">
				<g id="Grupo_2026" transform="translate(0)">
					<g id="Grupo_2025">
						<path id="Trazado_44011" class="st0" d="M2.6,0C0.8,1.2-0.2,3.3,0.1,5.5C0.1,5.5,3.2,4.2,2.6,0z"/>
					</g>
				</g>
			</g>
			<g id="Grupo_2030" transform="translate(5.679 4.184)">
				<g id="Grupo_2029" transform="translate(0 0)">
					<g id="Grupo_2028">
						<path id="Trazado_44012" class="st0" d="M0,0c0,0-0.3,3.9,2.8,4.5C2.9,4.5,2.9,1,0,0z"/>
					</g>
				</g>
			</g>
			<g id="Grupo_2033" transform="translate(0 9.655)">
				<g id="Grupo_2032">
					<g id="Grupo_2031">
						<path id="Trazado_44013" class="st0" d="M0,0c1.9,0.3,3.4,1.9,3.5,3.9C1.5,3.6,0.1,2,0,0z"/>
					</g>
				</g>
			</g>
			<g id="Grupo_2036" transform="translate(33.438 7.327)">
				<g id="Grupo_2035" transform="translate(0 0)">
					<g id="Grupo_2034">
						<path id="Trazado_44014" class="st0" d="M4.2,0c0,0-4,0.1-4.2,4.1C0,4.1,2.9,4.3,4.2,0z"/>
					</g>
				</g>
			</g>
			<g id="Grupo_2039" transform="translate(8.511 28.321)">
				<g id="Grupo_2038">
					<g id="Grupo_2037">
						<path id="Trazado_44015" class="st0" d="M0.1,5.5C1.9,4.3,2.9,2.2,2.6,0C2.6,0-0.5,1.3,0.1,5.5z"/>
					</g>
				</g>
			</g>
			<g id="Grupo_2042" transform="translate(29.766 27.356)">
				<g id="Grupo_2041" transform="translate(0 0)">
					<g id="Grupo_2040">
						<path id="Trazado_44016" class="st0" d="M2.8,4.5c0,0,0.3-3.9-2.8-4.5C0,0,0,3.5,2.8,4.5z"/>
					</g>
				</g>
			</g>
			<g id="Grupo_2045" transform="translate(34.822 22.528)">
				<g id="Grupo_2044">
					<g id="Grupo_2043">
						<path id="Trazado_44017" class="st0" d="M3.5,3.9C1.5,3.6,0.1,2,0,0C1.9,0.3,3.4,1.9,3.5,3.9z"/>
					</g>
				</g>
			</g>
			<g id="Grupo_2048" transform="translate(0.644 24.657)">
				<g id="Grupo_2047">
					<g id="Grupo_2046">
						<path id="Trazado_44018" class="st0" d="M0,4.1C0,4.1,4,4,4.2,0C4.2,0,1.3-0.2,0,4.1z"/>
					</g>
				</g>
			</g>
			<g id="Grupo_2049" transform="translate(4.017 15.531)">
				<path id="Trazado_44019" class="st5" d="M3.7,5.2c0-1.6-0.3-3.3-0.7-4.8c0-0.2-0.2-0.5-0.4-0.3c-1,1-1.9,2.2-2.5,3.6
					c0,0,0,0.1,0,0.2C0,3.9,0,4,0.1,4.1c0.5,0.3,1,0.6,1.6,0.8c0.6,0.3,1.1,0.6,1.7,0.9C3.6,6,3.7,5.5,3.7,5.2z M0.7,3.7
					C1.3,2.8,1.8,2,2.5,1.2C2.7,2.3,2.8,3.5,3,4.6C2.3,4.2,1.5,3.8,0.7,3.7L0.7,3.7z"/>
			</g>
			<g id="Grupo_2050" transform="translate(31.812 13.894)">
				<path id="Trazado_44020" class="st5" d="M3.3,3.2L3.3,3.2c0-0.2,0-0.3-0.2-0.5C2.9,2.3,2.5,1.8,2.1,1.4C1.6,0.8,1,0.3,0.2,0
					C0-0.1,0,0.2,0,0.4c0,0,0,0.1,0,0.1c0.2,0.8,0.3,1.5,0.4,2.3c0,0.7-0.1,1.4-0.1,2.1c0,0.1,0.1,0.2,0.2,0.2
					c0,0.2,0.1,0.3,0.3,0.2C1.7,5,2.6,4.3,3.2,3.5C3.3,3.5,3.4,3.3,3.3,3.2z M0.8,4.6C1.1,3.4,1,2.2,0.6,1c0.4,0.3,0.8,0.6,1.1,1
					C2,2.3,2.3,2.6,2.5,2.9c0,0.1,0.1,0.1,0.1,0.2C2.4,3.3,2.1,3.6,1.8,3.8C1.5,4.1,1.1,4.3,0.8,4.6L0.8,4.6z"/>
			</g>
			<g>
				<g id="Grupo_2007" transform="translate(11.249 9.801)">
					<g id="Grupo_2006" transform="translate(0)">
						<g id="Grupo_2005">
							<path id="Trazado_44005" class="st0" d="M13.3,1.7c-1.6-0.9-3.5-1.2-5.3-1c-0.1,0-0.1,0-0.2,0C4.1,0.8,1.2,3.7,1,7.3
								c0,3.7,2.6,6.8,6.2,7.5c5.1,0.7,7.7-1.6,9-4.7C17.4,7,16.1,3.4,13.3,1.7z"/>
						</g>
					</g>
				</g>
				<g id="Grupo_2010" transform="translate(16.284 13.662)">
					<g id="Grupo_2009" transform="translate(0 0)">
						<g id="Grupo_2008">
							<path id="Trazado_44006" class="st6" d="M5.9,3.3C5.9,3.3,5.9,3.2,5.9,3.3c0-1-0.4-1.9-1.2-2.4C4.3,0.7,3.9,0.6,3.6,0.7
								C2.8,0.6,2.1,0.9,1.6,1.5c-1.3,1.7-0.5,4.8,2,4.6c1.3-0.2,2.2-1.3,2.3-2.5C5.9,3.5,5.9,3.4,5.9,3.3z"/>
						</g>
					</g>
				</g>
				<path id="Trazado_44021" class="st5" d="M20.5,15.3c-0.2-0.1-0.4-0.1-0.6,0c0,0-0.1,0-0.1,0.1c0,0-0.1,0-0.1,0
					c-0.3,0.2-0.5,0.6-0.5,1c0,0.5,0.3,1,0.8,1.2c0,0,0.1,0,0.1,0c0.2,0,0.3-0.1,0.5-0.2c0.5-0.5,0.6-1.3,0.1-1.8
					C20.7,15.4,20.6,15.3,20.5,15.3z M20.4,16.3L20.4,16.3C20.4,16.3,20.4,16.3,20.4,16.3L20.4,16.3z M20.4,16.3L20.4,16.3
					C20.4,16.2,20.4,16.2,20.4,16.3L20.4,16.3z M20.4,16.3C20.4,16.3,20.4,16.3,20.4,16.3C20.4,16.3,20.4,16.3,20.4,16.3z
					 M20.4,16.3L20.4,16.3C20.4,16.2,20.4,16.3,20.4,16.3L20.4,16.3z"/>
				<path id="Trazado_44022" class="st5" d="M27,12.1c-0.7-0.2-1.4,0-1.9,0.5c-0.5,0.4-1,1.4-0.5,2c0,0.1,0.1,0.1,0.2,0.1
					c0,0,0.1,0,0.1,0c0.8,0.1,1.5-0.2,2.1-0.7C27.5,13.6,27.9,12.4,27,12.1z"/>
				<g id="Grupo_2051" transform="translate(11.594 19.9)">
					<path id="Trazado_44023" class="st5" d="M2.7,0.7C2.3,0.6,1.9,0.7,1.6,1C1.5,1.1,1.4,1.2,1.3,1.4C1.3,1.4,1.2,1.5,1.2,1.6
						C0.9,2,1,2.6,1.3,2.9c0.7,0.6,1.8-0.3,1.9-1C3.4,1.4,3.1,0.9,2.7,0.7z M2.6,1.9C2.6,1.9,2.6,1.9,2.6,1.9
						C2.6,1.9,2.6,1.9,2.6,1.9C2.6,1.9,2.6,1.9,2.6,1.9L2.6,1.9z"/>
				</g>
			</g>
		</g>
	</g>
</g>
<g id="Capa_2" class="st7">
	<g id="Componente_20_1_" transform="translate(756.26 524.962)" class="st8">
		<path id="Trazado_44001_1_" class="st0" d="M-717.1-489.6c0,0,1.7-2.8-1.4-6.4C-719.5-493.7-718.9-491.2-717.1-489.6z"/>
		<path id="Trazado_44002_1_" class="st0" d="M-725.4-488.7c0,0,3.5-3.2,1-7.1C-724.3-495.8-726.8-493.3-725.4-488.7z"/>
		<g id="Grupo_2000_1_" transform="translate(2.649 8.655)">
			<g id="Grupo_1999_1_" transform="translate(0 0)">
				<g id="Grupo_1998_1_">
					<path id="Trazado_44003_1_" class="st1" d="M-744.9-509.2c0,0,4.1-4.6,17.7-4.6c7.8-0.1,15.2,1.2,20,3.4c0,0-4.9,4.1-17.7,4.1
						C-732.4-506.4-739.6-507.4-744.9-509.2z"/>
				</g>
			</g>
			<path id="Trazado_44024_1_" class="st2" d="M-720.6-504.2"/>
		</g>
		<g id="Grupo_2004_1_" transform="translate(4.187 19.882)">
			<g id="Grupo_2003_1_" transform="translate(0)">
				<g id="Grupo_2002_1_">
					<g id="Grupo_2001_1_">
						<path id="Trazado_44004_1_" class="st3" d="M-744.6-515.1c0.1,0,0.1-0.2,0-0.2S-744.7-515.1-744.6-515.1z"/>
					</g>
				</g>
			</g>
		</g>
		<g id="Grupo_2007_1_" transform="translate(12.347 10.758)">
			<g id="Grupo_2006_1_" transform="translate(0)">
				<g id="Grupo_2005_1_">
					<path class="st0" d="M-734.6-508.5c1.9,0,3.1-0.1,3.6-0.1c0.2,0,0.5,0,0.5,0c0.6,0,1.2-0.1,2.2-0.2c1-0.1,1.5-0.2,1.6-0.2
						c0.6-0.6-1.4-3.2-4.6-4.4c-2.3-0.9-4.7-0.9-5.9-0.8h-0.2c-2.9,0.1-5.5,1.2-6.7,2.9c-0.2,0.3-1.3,1.5-0.7,2.1
						c0.1,0.1,0.3,0.2,2.8,0.4c1.4,0.1,2.2,0.2,2.6,0.2c0.6,0,1.2,0.1,1.6,0.1C-736.5-508.5-735.4-508.5-734.6-508.5z"/>
				</g>
			</g>
		</g>
		<g id="Grupo_2010_1_" transform="translate(17.875 14.996)">
			<g id="Grupo_2009_1_" transform="translate(0 0)">
				<g id="Grupo_2008_1_">
					<path class="st6" d="M-739.1-512.8c0-0.1-0.1-1.7-1.3-2.3c-0.5-0.3-1-0.3-1.3-0.3c-0.1,0-1.3,0-2.1,0.9
						c-0.5,0.6-0.5,1.4-0.5,1.6c0.6,0,1.2,0.1,1.9,0.1C-741.2-512.7-740.1-512.7-739.1-512.8z"/>
				</g>
			</g>
		</g>
		<g id="Grupo_2014_1_" transform="translate(16.31 7.64)">
			<g id="Grupo_2013_1_" transform="translate(0)">
				<g id="Grupo_2012_1_">
					<g id="Grupo_2011_1_">
						<path id="Trazado_44007_1_" class="st4" d="M-744.7-515.2C-744.6-515.2-744.6-515.3-744.7-515.2
							C-744.7-515.3-744.7-515.2-744.7-515.2z"/>
					</g>
				</g>
			</g>
		</g>
		<g id="Grupo_2018_1_" transform="translate(26.368 31.178)">
			<g id="Grupo_2017_1_" transform="translate(0)">
				<g id="Grupo_2016_1_">
					<g id="Grupo_2015_1_">
						<path id="Trazado_44008_1_" class="st4" d="M-744.7-515.3C-744.7-515.3-744.7-515.2-744.7-515.3
							C-744.6-515.2-744.6-515.3-744.7-515.3z"/>
					</g>
				</g>
			</g>
		</g>
		<g id="Grupo_2021_1_" transform="translate(13.741 1.06)">
			<g id="Grupo_2020_1_">
				<g id="Grupo_2019_1_">
					<path id="Trazado_44009_1_" class="st0" d="M-744.2-514c0,0-1.7,2.8,1.4,6.4C-741.8-509.9-742.4-512.4-744.2-514z"/>
				</g>
			</g>
		</g>
		<g id="Grupo_2024_1_" transform="translate(21.336)">
			<g id="Grupo_2023_1_">
				<g id="Grupo_2022_1_">
					<path id="Trazado_44010_1_" class="st0" d="M-742.9-514.2c0,0-3.5,3.2-1,7.1C-744-507.1-741.5-509.6-742.9-514.2z"/>
				</g>
			</g>
		</g>
		<g id="Grupo_2027_1_" transform="translate(29.738 2.473)">
			<g id="Grupo_2026_1_" transform="translate(0)">
				<g id="Grupo_2025_1_">
					<path id="Trazado_44011_1_" class="st0" d="M-741.5-514.8c0,0-3.5,2.1-2.8,6C-744.3-508.8-740.8-510.2-741.5-514.8z"/>
				</g>
			</g>
		</g>
		<g id="Grupo_2030_1_" transform="translate(6.234 4.592)">
			<g id="Grupo_2029_1_" transform="translate(0 0)">
				<g id="Grupo_2028_1_">
					<path id="Trazado_44012_1_" class="st0" d="M-744.7-515.3c0,0-0.3,4.2,3.1,4.9C-741.6-510.3-741.6-514.2-744.7-515.3z"/>
				</g>
			</g>
		</g>
		<g id="Grupo_2033_1_" transform="translate(0 10.598)">
			<g id="Grupo_2032_1_">
				<g id="Grupo_2031_1_">
					<path id="Trazado_44013_1_" class="st0" d="M-745.8-517.1c2.1,0.3,3.7,2.1,3.8,4.2C-744.2-513.1-745.8-514.9-745.8-517.1z"/>
				</g>
			</g>
		</g>
		<g id="Grupo_2036_1_" transform="translate(36.704 8.043)">
			<g id="Grupo_2035_1_" transform="translate(0 0)">
				<g id="Grupo_2034_1_">
					<path id="Trazado_44014_1_" class="st0" d="M-738.8-516.6c0,0-4.4,0.1-4.6,4.5C-743.4-512.1-740.2-511.8-738.8-516.6z"/>
				</g>
			</g>
		</g>
		<g id="Grupo_2039_1_" transform="translate(9.342 31.087)">
			<g id="Grupo_2038_1_">
				<g id="Grupo_2037_1_">
					<path id="Trazado_44015_1_" class="st0" d="M-742.7-521.4c0,0,3.5-2.1,2.8-6C-739.9-527.4-743.4-526-742.7-521.4z"/>
				</g>
			</g>
		</g>
		<g id="Grupo_2042_1_" transform="translate(32.673 30.027)">
			<g id="Grupo_2041_1_" transform="translate(0 0)">
				<g id="Grupo_2040_1_">
					<path id="Trazado_44016_1_" class="st0" d="M-742.8-521.7c0,0,0.3-4.2-3.1-4.9C-745.9-526.6-745.9-522.7-742.8-521.7z"/>
				</g>
			</g>
		</g>
		<g id="Grupo_2045_1_" transform="translate(38.223 24.728)">
			<g id="Grupo_2044_1_">
				<g id="Grupo_2043_1_">
					<path id="Trazado_44017_1_" class="st0" d="M-741.3-519.5c-2.1-0.3-3.7-2.1-3.8-4.2C-743-523.4-741.4-521.7-741.3-519.5z"/>
				</g>
			</g>
		</g>
		<g id="Grupo_2048_1_" transform="translate(0.706 27.066)">
			<g id="Grupo_2047_1_">
				<g id="Grupo_2046_1_">
					<path id="Trazado_44018_1_" class="st0" d="M-742.7-520.2c0,0,4.4-0.1,4.6-4.5C-738.1-524.7-741.3-524.9-742.7-520.2z"/>
				</g>
			</g>
		</g>
		<g id="Grupo_2049_1_" transform="translate(4.41 17.048)">
			<path id="Trazado_44019_1_" class="st5" d="M-741.3-517.3c0-0.6-0.2-1.2-0.6-1.9c0-0.1-0.2-0.2-0.4-0.1c-0.9,0.4-1.6,0.9-2.2,1.4
				c0,0,0,0,0,0.1c0,0,0,0.1,0.1,0.1c0.4,0.1,0.9,0.2,1.4,0.3c0.5,0.1,1,0.2,1.5,0.3C-741.3-517-741.2-517.2-741.3-517.3z
				 M-743.9-517.9c0.5-0.3,1-0.6,1.6-0.9c0.2,0.4,0.2,0.9,0.4,1.3C-742.5-517.7-743.2-517.8-743.9-517.9L-743.9-517.9z"/>
		</g>
		<g id="Grupo_2050_1_" transform="translate(34.919 15.251)">
			<path id="Trazado_44020_1_" class="st5" d="M-741.7-516.5L-741.7-516.5c0-0.1,0-0.1-0.2-0.2c-0.3-0.2-0.6-0.4-1-0.5
				c-0.4-0.2-1-0.4-1.7-0.6c-0.2,0-0.2,0.1-0.2,0.2c0,0,0,0,0,0c0.2,0.3,0.3,0.6,0.4,0.9c0,0.3-0.1,0.6-0.1,0.8c0,0,0.1,0.1,0.1,0.1
				c0,0.1,0.1,0.1,0.2,0.1c0.8-0.2,1.6-0.4,2.2-0.8C-741.7-516.4-741.7-516.5-741.7-516.5z M-744-515.9c0.3-0.5,0.2-1-0.2-1.4
				c0.3,0.1,0.7,0.2,1,0.4c0.3,0.1,0.5,0.2,0.7,0.3c0,0,0.1,0,0.1,0.1c-0.3,0.1-0.5,0.2-0.8,0.3C-743.4-516.1-743.7-516-744-515.9
				L-744-515.9z"/>
		</g>
		<path id="Trazado_44021_1_" class="st5" d="M-723.3-499.2c-0.2-0.1-0.4-0.1-0.6,0c0,0-0.1,0-0.1,0.1c0,0-0.1,0-0.1,0
			c-0.1,0.1-0.3,0.2-0.4,0.4c-0.2,0.4,0,0.9,0,0.9c0.3,0,0.5,0,0.7,0c0.1,0,0.2,0,0.4,0c0.3,0,0.4,0,0.5,0c0,0,0.1,0,0.2,0
			c0.1,0,0.1,0,0.2,0c0.1-0.1,0.1-0.3,0.1-0.4c0-0.1-0.1-0.4-0.4-0.8C-723.1-499.1-723.2-499.1-723.3-499.2z"/>
		<path id="Trazado_44022_1_" class="st5" d="M-716.2-502.7c-0.7-0.2-1.5,0-2.1,0.6c-0.5,0.5-1.1,1.6-0.6,2.2
			c0.1,0.1,0.2,0.1,0.3,0.1c0,0,0.1,0,0.1,0c0.8,0.1,1.7-0.2,2.3-0.8C-715.6-501-715.2-502.3-716.2-502.7z"/>
	</g>
</g>
</svg>
