<?xml version="1.0" encoding="utf-8"?>
<!-- Generator: Adobe Illustrator 25.2.1, SVG Export Plug-In . SVG Version: 6.00 Build 0)  -->
<svg version="1.1" xmlns="http://www.w3.org/2000/svg" xmlns:xlink="http://www.w3.org/1999/xlink" x="0px" y="0px"
	 viewBox="0 0 58.3 54" style="enable-background:new 0 0 58.3 54;" xml:space="preserve">
<style type="text/css">
	.st0{fill:#799F7B;}
	.st1{fill:#F2DBAE;}
	.st2{fill:none;stroke:#707070;}
	.st3{fill:#0F1110;}
	.st4{fill:#2830CE;}
	.st5{fill:#FFFFFF;}
	.st6{fill:#0C0E0D;}
	.st7{display:none;}
	.st8{display:inline;}
	.st9{display:inline;fill:#799F7B;}
	.st10{display:inline;fill:#FFFFFF;}
</style>
<g id="Capa_1">
	<g id="Grupo_30503" transform="translate(-745.829 -517.977)">
		<path id="Trazado_44215" d="M745.8,520l58.3-2v54H755L745.8,520z"/>
		<g id="Componente_20" transform="translate(756.26 524.962)">
			<path id="Trazado_44001" class="st0" d="M27.8,38.5c0,0,1.7-2.8-1.4-6.4C25.4,34.3,26,36.9,27.8,38.5z"/>
			<path id="Trazado_44002" class="st0" d="M18.8,39.6c0,0,3.5-3.2,1-7.1C19.8,32.5,17.4,35,18.8,39.6z"/>
			<g id="Grupo_2000" transform="translate(2.649 8.655)">
				<g id="Grupo_1999" transform="translate(0 0)">
					<g id="Grupo_1998">
						<path id="Trazado_44003" class="st1" d="M0,13.2C0,13.2,4.1,0,17.7,0c7.8-0.1,15.2,3.5,20,9.7c0,0-4.9,11.7-17.7,11.7
							C12.5,21.4,5.3,18.5,0,13.2z"/>
					</g>
				</g>
				<path id="Trazado_44024" class="st2" d="M24.2,27.6"/>
			</g>
			<g id="Grupo_2004" transform="translate(4.187 19.882)">
				<g id="Grupo_2003" transform="translate(0)">
					<g id="Grupo_2002">
						<g id="Grupo_2001">
							<path id="Trazado_44004" class="st3" d="M0.1,0.2c0.1,0,0.1-0.2,0-0.2S0,0.2,0.1,0.2z"/>
						</g>
					</g>
				</g>
			</g>
			<g id="Grupo_2014" transform="translate(16.31 7.64)">
				<g id="Grupo_2013" transform="translate(0)">
					<g id="Grupo_2012">
						<g id="Grupo_2011">
							<path id="Trazado_44007" class="st4" d="M0,0.1C0.1,0.1,0.1,0,0,0.1C0,0,0,0.1,0,0.1z"/>
						</g>
					</g>
				</g>
			</g>
			<g id="Grupo_2018" transform="translate(26.368 31.178)">
				<g id="Grupo_2017" transform="translate(0)">
					<g id="Grupo_2016">
						<g id="Grupo_2015">
							<path id="Trazado_44008" class="st4" d="M0,0C0,0,0,0.1,0,0C0.1,0.1,0.1,0,0,0z"/>
						</g>
					</g>
				</g>
			</g>
			<g id="Grupo_2021" transform="translate(13.741 1.06)">
				<g id="Grupo_2020">
					<g id="Grupo_2019">
						<path id="Trazado_44009" class="st0" d="M0.5,0c0,0-1.7,2.8,1.4,6.4C2.9,4.2,2.3,1.6,0.5,0z"/>
					</g>
				</g>
			</g>
			<g id="Grupo_2024" transform="translate(21.336)">
				<g id="Grupo_2023">
					<g id="Grupo_2022">
						<path id="Trazado_44010" class="st0" d="M1.9,0c0,0-3.5,3.2-1,7.1C0.9,7.1,3.3,4.6,1.9,0z"/>
					</g>
				</g>
			</g>
			<g id="Grupo_2027" transform="translate(29.738 2.473)">
				<g id="Grupo_2026" transform="translate(0)">
					<g id="Grupo_2025">
						<path id="Trazado_44011" class="st0" d="M2.9,0c0,0-3.5,2.1-2.8,6C0.1,6,3.6,4.6,2.9,0z"/>
					</g>
				</g>
			</g>
			<g id="Grupo_2030" transform="translate(6.234 4.592)">
				<g id="Grupo_2029" transform="translate(0 0)">
					<g id="Grupo_2028">
						<path id="Trazado_44012" class="st0" d="M0,0c0,0-0.3,4.2,3.1,4.9C3.1,4.9,3.1,1.1,0,0z"/>
					</g>
				</g>
			</g>
			<g id="Grupo_2033" transform="translate(0 10.598)">
				<g id="Grupo_2032">
					<g id="Grupo_2031">
						<path id="Trazado_44013" class="st0" d="M0,0c2.1,0.3,3.7,2.1,3.8,4.2C1.7,3.9,0.1,2.1,0,0z"/>
					</g>
				</g>
			</g>
			<g id="Grupo_2036" transform="translate(36.704 8.043)">
				<g id="Grupo_2035" transform="translate(0 0)">
					<g id="Grupo_2034">
						<path id="Trazado_44014" class="st0" d="M4.6,0c0,0-4.4,0.1-4.6,4.5C0,4.5,3.2,4.7,4.6,0z"/>
					</g>
				</g>
			</g>
			<g id="Grupo_2039" transform="translate(9.342 31.087)">
				<g id="Grupo_2038">
					<g id="Grupo_2037">
						<path id="Trazado_44015" class="st0" d="M0.1,6c0,0,3.5-2.1,2.8-6C2.9,0-0.6,1.4,0.1,6z"/>
					</g>
				</g>
			</g>
			<g id="Grupo_2042" transform="translate(32.673 30.027)">
				<g id="Grupo_2041" transform="translate(0 0)">
					<g id="Grupo_2040">
						<path id="Trazado_44016" class="st0" d="M3.1,4.9c0,0,0.3-4.2-3.1-4.9C0,0,0,3.9,3.1,4.9z"/>
					</g>
				</g>
			</g>
			<g id="Grupo_2045" transform="translate(38.223 24.728)">
				<g id="Grupo_2044">
					<g id="Grupo_2043">
						<path id="Trazado_44017" class="st0" d="M3.8,4.2C1.7,3.9,0.1,2.2,0,0C2.1,0.3,3.7,2.1,3.8,4.2z"/>
					</g>
				</g>
			</g>
			<g id="Grupo_2048" transform="translate(0.706 27.066)">
				<g id="Grupo_2047">
					<g id="Grupo_2046">
						<path id="Trazado_44018" class="st0" d="M0,4.5c0,0,4.4-0.1,4.6-4.5C4.6,0,1.4-0.3,0,4.5z"/>
					</g>
				</g>
			</g>
			<g id="Grupo_2049" transform="translate(4.41 17.048)">
				<path id="Trazado_44019" class="st5" d="M4,5.7c0-1.8-0.3-3.6-0.8-5.3c0-0.2-0.3-0.5-0.5-0.3C1.6,1.2,0.7,2.5,0,4
					C0,4,0,4.1,0,4.2c0,0.1,0,0.3,0.1,0.4c0.5,0.4,1.1,0.7,1.7,0.9C2.4,5.7,3.1,6,3.7,6.4C4,6.5,4.1,6,4,5.7z M0.7,4
					c0.7-0.9,1.3-1.8,2-2.7C3,2.6,3.1,3.8,3.3,5.1C2.5,4.6,1.6,4.2,0.7,4L0.7,4z"/>
			</g>
			<g id="Grupo_2050" transform="translate(34.919 15.251)">
				<path id="Trazado_44020" class="st5" d="M3.7,3.5L3.7,3.5c0-0.2-0.1-0.4-0.2-0.5C3.2,2.5,2.8,2,2.3,1.6C1.8,0.9,1.1,0.4,0.3,0
					C0-0.1,0,0.3,0,0.4c0,0,0,0.1,0,0.1c0.2,0.8,0.4,1.7,0.4,2.6c0,0.8-0.1,1.6-0.1,2.3c0,0.1,0.1,0.2,0.2,0.3C0.6,5.9,0.7,6,0.8,6
					c1-0.5,2-1.2,2.7-2.1C3.7,3.8,3.7,3.6,3.7,3.5z M0.9,5c0.3-1.3,0.2-2.7-0.2-3.9C1,1.5,1.5,1.8,1.9,2.2c0.3,0.3,0.6,0.6,0.9,1
					c0.1,0.1,0.1,0.1,0.1,0.2C2.6,3.6,2.3,3.9,2,4.2C1.6,4.5,1.2,4.7,0.9,5L0.9,5z"/>
			</g>
			<g>
				<g id="Grupo_2007" transform="translate(12.347 10.758)">
					<g id="Grupo_2006" transform="translate(0)">
						<g id="Grupo_2005">
							<path id="Trazado_44005" class="st0" d="M14.6,1.8c-1.8-1-3.9-1.3-5.9-1.1c-0.1,0-0.1,0-0.2,0C4.5,1,1.2,4,1.1,8.1
								c0,4,2.8,7.5,6.8,8.3c5.6,0.8,8.5-1.8,9.8-5.2C19.1,7.7,17.7,3.8,14.6,1.8z"/>
						</g>
					</g>
				</g>
				<g id="Grupo_2010" transform="translate(17.875 14.996)">
					<g id="Grupo_2009" transform="translate(0 0)">
						<g id="Grupo_2008">
							<path id="Trazado_44006" class="st6" d="M6.5,3.6C6.5,3.6,6.5,3.6,6.5,3.6C6.5,2.5,6,1.5,5.2,1C4.8,0.8,4.3,0.7,3.9,0.7
								C3.1,0.6,2.3,1,1.8,1.7C0.4,3.5,1.2,7,4,6.7c1.4-0.2,2.4-1.4,2.5-2.8C6.5,3.8,6.5,3.7,6.5,3.6z"/>
						</g>
					</g>
				</g>
				<path id="Trazado_44021" class="st5" d="M22.6,16.8c-0.2-0.1-0.4-0.1-0.6,0c0,0-0.1,0-0.1,0.1c0,0-0.1,0-0.1,0
					c-0.4,0.2-0.6,0.6-0.6,1.1c0,0.6,0.4,1.1,0.9,1.3c0,0,0.1,0,0.1,0c0.2,0,0.4-0.1,0.5-0.2c0.6-0.5,0.7-1.4,0.2-2
					C22.7,16.9,22.7,16.8,22.6,16.8z M22.4,17.9L22.4,17.9C22.4,17.9,22.4,17.9,22.4,17.9L22.4,17.9z M22.4,17.9L22.4,17.9
					C22.4,17.8,22.4,17.8,22.4,17.9L22.4,17.9z M22.4,17.9C22.4,17.9,22.4,17.9,22.4,17.9C22.4,17.9,22.4,17.9,22.4,17.9L22.4,17.9z
					 M22.4,17.9L22.4,17.9C22.4,17.8,22.4,17.8,22.4,17.9L22.4,17.9z"/>
				<path id="Trazado_44022" class="st5" d="M29.6,13.3c-0.7-0.2-1.5,0-2.1,0.6C27,14.3,26.4,15.4,27,16c0.1,0.1,0.2,0.1,0.3,0.1
					c0,0,0.1,0,0.1,0c0.8,0.1,1.7-0.2,2.3-0.8C30.2,14.9,30.6,13.7,29.6,13.3z"/>
				<g id="Grupo_2051" transform="translate(12.727 21.844)">
					<path id="Trazado_44023" class="st5" d="M3,0.8C2.6,0.6,2.1,0.7,1.8,1.1C1.7,1.2,1.6,1.4,1.5,1.5C1.4,1.6,1.3,1.7,1.3,1.7
						C1,2.2,1.1,2.8,1.5,3.2c0.7,0.6,2-0.4,2.1-1.1C3.7,1.6,3.5,1,3,0.8z M2.9,2.1C2.9,2.1,2.9,2.1,2.9,2.1C2.9,2.1,2.9,2.1,2.9,2.1
						z"/>
				</g>
			</g>
		</g>
	</g>
</g>
<g id="Capa_1_copia">
	<g id="Grupo_30503_1_" transform="translate(-745.829 -517.977)" class="st7">
		<path id="Trazado_44215_1_" class="st8" d="M746.1,520l58.3-2v54h-49.2L746.1,520z"/>
		<g id="Componente_20_1_" transform="translate(756.26 524.962)" class="st8">
			<path id="Trazado_44001_1_" class="st0" d="M28.2,33.6c0,0,1.7-2.8-1.3-6.4C26,29.4,26.5,32,28.2,33.6z"/>
			<path id="Trazado_44002_1_" class="st0" d="M20.4,34.5c0,0,3.3-3.2,1-7.1C21.3,27.4,19,29.9,20.4,34.5z"/>
			<g id="Grupo_2000_1_" transform="translate(2.649 8.655)">
				<g id="Grupo_1999_1_" transform="translate(0 0)">
					<g id="Grupo_1998_1_">
						<path id="Trazado_44003_1_" class="st1" d="M2.5,11.7c5.7-0.1,3,0.3,15.9,0.3c7.5,0,12.9-1.3,17.4-0.2c0,0-4.8,4.2-16.9,4.2
							C5.7,15.9-3.2,11.9,2.5,11.7z"/>
					</g>
				</g>
				<path id="Trazado_44024_1_" class="st2" d="M24.8,17.9"/>
			</g>
			<g id="Grupo_2004_1_" transform="translate(4.187 19.882)">
				<g id="Grupo_2003_1_" transform="translate(0)">
					<g id="Grupo_2002_1_">
						<g id="Grupo_2001_1_">
							<path id="Trazado_44004_1_" class="st3" d="M1.8,7c0.1,0,0.1-0.2,0-0.2C1.8,6.9,1.8,7,1.8,7z"/>
						</g>
					</g>
				</g>
			</g>
			<g id="Grupo_2014_1_" transform="translate(16.31 7.64)">
				<g id="Grupo_2013_1_" transform="translate(0)">
					<g id="Grupo_2012_1_">
						<g id="Grupo_2011_1_">
							<path id="Trazado_44007_1_" class="st4" d="M1.2,7C1.3,7,1.3,6.9,1.2,7C1.2,6.9,1.2,7,1.2,7z"/>
						</g>
					</g>
				</g>
			</g>
			<g id="Grupo_2018_1_" transform="translate(26.368 31.178)">
				<g id="Grupo_2017_1_" transform="translate(0)">
					<g id="Grupo_2016_1_">
						<g id="Grupo_2015_1_">
							<path id="Trazado_44008_1_" class="st4" d="M0.7,6.9C0.7,6.9,0.7,7,0.7,6.9C0.8,7,0.8,6.9,0.7,6.9z"/>
						</g>
					</g>
				</g>
			</g>
			<g id="Grupo_2021_1_" transform="translate(13.741 1.06)">
				<g id="Grupo_2020_1_">
					<g id="Grupo_2019_1_">
						<path id="Trazado_44009_1_" class="st0" d="M1.8,11.6c0,0-1.7,2.8,1.3,6.4C4,15.8,3.5,13.2,1.8,11.6z"/>
					</g>
				</g>
			</g>
			<g id="Grupo_2024_1_" transform="translate(21.336)">
				<g id="Grupo_2023_1_">
					<g id="Grupo_2022_1_">
						<path id="Trazado_44010_1_" class="st0" d="M2.3,11.1c0,0-3.3,3.2-1,7.1C1.3,18.1,3.6,15.7,2.3,11.1z"/>
					</g>
				</g>
			</g>
			<g id="Grupo_2027_1_" transform="translate(29.738 2.473)">
				<g id="Grupo_2026_1_" transform="translate(0)">
					<g id="Grupo_2025_1_">
						<path id="Trazado_44011_1_" class="st0" d="M2.1,9.7c0,0-3.3,2.1-2.6,6C-0.5,15.7,2.8,14.3,2.1,9.7z"/>
					</g>
				</g>
			</g>
			<g id="Grupo_2030_1_" transform="translate(6.234 4.592)">
				<g id="Grupo_2029_1_" transform="translate(0 0)">
					<g id="Grupo_2028_1_">
						<path id="Trazado_44012_1_" class="st0" d="M2.1,9c0,0-0.3,4.2,3,4.9C5,14,5,10.1,2.1,9z"/>
					</g>
				</g>
			</g>
			<g id="Grupo_2033_1_" transform="translate(0 10.598)">
				<g id="Grupo_2032_1_">
					<g id="Grupo_2031_1_">
						<path id="Trazado_44013_1_" class="st0" d="M-0.2,3.4c2,0.3,3.6,2.1,3.6,4.2C1.4,7.3-0.2,5.5-0.2,3.4z"/>
					</g>
				</g>
			</g>
			<g id="Grupo_2036_1_" transform="translate(36.704 8.043)">
				<g id="Grupo_2035_1_" transform="translate(0 0)">
					<g id="Grupo_2034_1_">
						<path id="Trazado_44014_1_" class="st0" d="M5.8,5.4c0,0-4.2,0.1-4.4,4.5C1.4,9.9,4.5,10.1,5.8,5.4z"/>
					</g>
				</g>
			</g>
			<g id="Grupo_2039_1_" transform="translate(9.342 31.087)">
				<g id="Grupo_2038_1_">
					<g id="Grupo_2037_1_">
						<path id="Trazado_44015_1_" class="st0" d="M3.4,1.8c0,0,3.3-2.1,2.6-6C6.1-4.2,2.8-2.8,3.4,1.8z"/>
					</g>
				</g>
			</g>
			<g id="Grupo_2042_1_" transform="translate(32.673 30.027)">
				<g id="Grupo_2041_1_" transform="translate(0 0)">
					<g id="Grupo_2040_1_">
						<path id="Trazado_44016_1_" class="st0" d="M2.2,1.5c0,0,0.3-4.2-3-4.9C-0.7-3.5-0.7,0.4,2.2,1.5z"/>
					</g>
				</g>
			</g>
			<g id="Grupo_2045_1_" transform="translate(38.223 24.728)">
				<g id="Grupo_2044_1_">
					<g id="Grupo_2043_1_">
						<path id="Trazado_44017_1_" class="st0" d="M3.4,3.6c-2-0.3-3.6-2.1-3.6-4.2C1.8-0.3,3.3,1.5,3.4,3.6z"/>
					</g>
				</g>
			</g>
			<g id="Grupo_2048_1_" transform="translate(0.706 27.066)">
				<g id="Grupo_2047_1_">
					<g id="Grupo_2046_1_">
						<path id="Trazado_44018_1_" class="st0" d="M3.8,2.9c0,0,4.2-0.1,4.4-4.5C8.2-1.5,5.2-1.8,3.8,2.9z"/>
					</g>
				</g>
			</g>
			<g id="Grupo_2049_1_" transform="translate(4.41 17.048)">
				<path id="Trazado_44019_1_" class="st5" d="M4.8,5.1c0-0.5-0.2-0.9-0.5-1.4c0,0-0.2-0.1-0.3-0.1c-0.7,0.3-1.3,0.6-1.7,1
					c0,0,0,0,0,0c0,0,0,0.1,0.1,0.1C2.8,4.9,3.1,5,3.5,5c0.4,0.1,0.7,0.2,1.1,0.2C4.8,5.3,4.9,5.2,4.8,5.1z M2.8,4.7
					C3.2,4.4,3.6,4.2,4.1,4c0.1,0.3,0.2,0.7,0.3,1C3.9,4.8,3.4,4.7,2.8,4.7L2.8,4.7z"/>
			</g>
			<g id="Grupo_2050_1_" transform="translate(34.919 15.251)">
				<path id="Trazado_44020_1_" class="st5" d="M0.6,6.3L0.6,6.3c0-0.1,0-0.1-0.1-0.2C0.2,6-0.1,5.8-0.4,5.7
					c-0.4-0.2-0.9-0.4-1.4-0.5C-2,5.1-2,5.2-2,5.3c0,0,0,0,0,0c0.1,0.3,0.3,0.6,0.3,0.8c0,0.3,0,0.5-0.1,0.8c0,0,0,0.1,0.1,0.1
					c0,0.1,0.1,0.1,0.2,0.1c0.7-0.2,1.4-0.4,1.9-0.7C0.5,6.4,0.6,6.3,0.6,6.3z M-1.4,6.8c0.2-0.4,0.2-0.9-0.2-1.3
					C-1.3,5.6-1,5.7-0.7,5.9C-0.5,6-0.3,6.1-0.1,6.2c0,0,0.1,0,0.1,0.1c-0.2,0.1-0.4,0.2-0.7,0.3C-0.9,6.6-1.2,6.7-1.4,6.8L-1.4,6.8
					z"/>
			</g>
			<path id="Trazado_44022_1_" class="st5" d="M25.8,19.6c-0.7-0.2-1.5,0-2,0.6c-0.5,0.5-1,1.6-0.6,2.2c0.1,0.1,0.1,0.1,0.2,0.1
				c0,0,0.1,0,0.1,0c0.8,0.1,1.6-0.2,2.2-0.8C26.4,21.3,26.7,20,25.8,19.6z"/>
		</g>
	</g>
	<g class="st7">
		<path id="Trazado_44001_2_" class="st9" d="M35.4,41.9c0,0,1.3-2-1-4.6C34.4,37.3,33.2,39.9,35.4,41.9z"/>
		<path id="Trazado_44002_2_" class="st9" d="M28.9,42.7c0,0,2.5-2.3,0.8-5.1C29.6,37.6,27.9,39.4,28.9,42.7z"/>
		<g id="Grupo_2000_2_" transform="translate(8.644 28.236)" class="st8">
			<g id="Grupo_1999_2_" transform="translate(0 0)">
				<g id="Grupo_1998_2_">
					<path id="Trazado_44003_2_" class="st1" d="M8.5,1.7c0,0,2.9-9.6,12.8-9.6s14.5,7,14.5,7S32.2,7.5,23,7.5S8.5,1.7,8.5,1.7z"/>
				</g>
			</g>
			<path id="Trazado_44024_2_" class="st2" d="M26.1,12.1"/>
		</g>
		<g id="Grupo_2004_2_" transform="translate(13.661 64.863)" class="st8">
			<g id="Grupo_2003_2_" transform="translate(0)">
				<g id="Grupo_2002_2_">
					<g id="Grupo_2001_2_">
						<path id="Trazado_44004_2_" class="st3" d="M4.7-36.3c0,0,0-0.1,0-0.1C4.6-36.4,4.6-36.3,4.7-36.3z"/>
					</g>
				</g>
			</g>
		</g>
		<g id="Grupo_2007_1_" transform="translate(27.568 38.096)" class="st8">
			<g id="Grupo_2006_1_" transform="translate(0)">
				<g id="Grupo_2005_1_">
					<path id="Trazado_44005_1_" class="st0" d="M3.6-14.8c-1.1-0.7-2.7-1-4.3-0.8c0,0-0.1,0-0.1,0c-2.9,0.2-5.3,2.3-5.3,5.3
						c0,2.9,2.1,5.6,4.9,6c4.1,0.6,6.1-1.3,7.1-3.8C6.8-10.6,5.8-13.4,3.6-14.8z"/>
				</g>
			</g>
		</g>
		<g id="Grupo_2010_1_" transform="translate(47.602 52.923)" class="st8">
			<g id="Grupo_2009_1_" transform="translate(0 0)">
				<g id="Grupo_2008_1_">
					<path id="Trazado_44006_1_" class="st6" d="M-17.9-25C-17.9-25.1-17.9-25.1-17.9-25c0-0.8-0.3-1.5-1-1.9
						c-0.3-0.2-0.6-0.2-0.9-0.2c-0.6-0.1-1.2,0.2-1.5,0.7c-1,1.3-0.4,3.9,1.6,3.7c1-0.1,1.7-1,1.8-2C-17.9-24.9-17.9-25-17.9-25z"/>
				</g>
			</g>
		</g>
		<g id="Grupo_2014_2_" transform="translate(53.209 24.926)" class="st8">
			<g id="Grupo_2013_2_" transform="translate(0)">
				<g id="Grupo_2012_2_">
					<g id="Grupo_2011_2_">
						<path id="Trazado_44007_2_" class="st4" d="M-26.1-5.3C-26.1-5.3-26.1-5.4-26.1-5.3C-26.1-5.4-26.1-5.3-26.1-5.3z"/>
					</g>
				</g>
			</g>
		</g>
		<g id="Grupo_2018_2_" transform="translate(86.025 101.716)" class="st8">
			<g id="Grupo_2017_2_" transform="translate(0)">
				<g id="Grupo_2016_2_">
					<g id="Grupo_2015_2_">
						<path id="Trazado_44008_2_" class="st4" d="M-51.6-65.1C-51.7-65.1-51.7-65-51.6-65.1C-51.6-65-51.6-65.1-51.6-65.1z"/>
					</g>
				</g>
			</g>
		</g>
		<g id="Grupo_2021_2_" transform="translate(44.828 3.458)" class="st8">
			<g id="Grupo_2020_2_">
				<g id="Grupo_2019_2_">
					<path id="Trazado_44009_2_" class="st0" d="M-19.3,11.3c0,0-1.3,2,1,4.6C-18.3,15.9-17,13.4-19.3,11.3z"/>
				</g>
			</g>
		</g>
		<g id="Grupo_2024_2_" transform="translate(69.608)" class="st8">
			<g id="Grupo_2023_2_">
				<g id="Grupo_2022_2_">
					<path id="Trazado_44010_2_" class="st0" d="M-37.5,14c0,0-2.5,2.3-0.8,5.1C-38.3,19.1-36.5,17.3-37.5,14z"/>
				</g>
			</g>
		</g>
		<g id="Grupo_2027_2_" transform="translate(97.019 8.067)" class="st8">
			<g id="Grupo_2026_2_" transform="translate(0)">
				<g id="Grupo_2025_2_">
					<path id="Trazado_44011_2_" class="st0" d="M-58.1,7.7c0,0-2.5,1.5-2,4.4C-60.1,12.1-57.6,11.1-58.1,7.7z"/>
				</g>
			</g>
		</g>
		<g id="Grupo_2030_2_" transform="translate(20.337 14.982)" class="st8">
			<g id="Grupo_2029_2_" transform="translate(0 0)">
				<g id="Grupo_2028_2_">
					<path id="Trazado_44012_2_" class="st0" d="M-0.6,2.4c0,0-0.3,3.1,2.3,3.6C1.7,5.9,1.7,3.1-0.6,2.4z"/>
				</g>
			</g>
		</g>
		<g id="Grupo_2033_2_" transform="translate(0 34.575)" class="st8">
			<g id="Grupo_2032_2_">
				<g id="Grupo_2031_2_">
					<path id="Trazado_44013_2_" class="st0" d="M15.3-12.9c0,0,2.5,0.3,2.8,3.1C18-9.8,15.5-10.1,15.3-12.9z"/>
				</g>
			</g>
		</g>
		<g id="Grupo_2036_2_" transform="translate(119.744 26.239)" class="st8">
			<g id="Grupo_2035_2_" transform="translate(0 0)">
				<g id="Grupo_2034_2_">
					<path id="Trazado_44014_2_" class="st0" d="M-74.5-6.4c0,0-3.2,0.1-3.4,3.2C-77.9-3.2-75.6-3-74.5-6.4z"/>
				</g>
			</g>
		</g>
		<g id="Grupo_2039_2_" transform="translate(30.477 101.42)" class="st8">
			<g id="Grupo_2038_2_">
				<g id="Grupo_2037_2_">
					<path id="Trazado_44015_2_" class="st0" d="M-8.4-60.5c0,0,2.5-1.5,2-4.4C-6.4-64.9-8.9-63.8-8.4-60.5z"/>
				</g>
			</g>
		</g>
		<g id="Grupo_2042_2_" transform="translate(106.594 97.962)" class="st8">
			<g id="Grupo_2041_2_" transform="translate(0 0)">
				<g id="Grupo_2040_2_">
					<path id="Trazado_44016_2_" class="st0" d="M-65.4-58.6c0,0,0.3-3.1-2.3-3.6C-67.6-62.2-67.6-59.4-65.4-58.6z"/>
				</g>
			</g>
		</g>
		<g id="Grupo_2045_2_" transform="translate(124.699 80.675)" class="st8">
			<g id="Grupo_2044_2_">
				<g id="Grupo_2043_2_">
					<path id="Trazado_44017_2_" class="st0" d="M-79-45.7c0,0-2.5-0.3-2.8-3.1C-81.7-48.7-79.2-48.5-79-45.7z"/>
				</g>
			</g>
		</g>
		<g id="Grupo_2048_2_" transform="translate(2.305 88.299)" class="st8">
			<g id="Grupo_2047_2_">
				<g id="Grupo_2046_2_">
					<path id="Trazado_44018_2_" class="st0" d="M13.5-51.4c0,0,3.2-0.1,3.4-3.2C16.8-54.7,14.5-54.9,13.5-51.4z"/>
				</g>
			</g>
		</g>
		<g id="Grupo_2049_2_" transform="translate(14.387 58.079)" class="st8">
			<path id="Trazado_44019_2_" class="st5" d="M6.5-27.5c0-1.1-0.3-2.3-0.5-3.4c0-0.1-0.2-0.3-0.3-0.2c-0.7,0.7-1.3,1.6-1.7,2.5
				c0,0,0,0.1,0,0.1c0,0.1,0,0.2,0.1,0.2c0.3,0.2,0.7,0.4,1,0.6c0.4,0.2,0.8,0.4,1.1,0.6C6.5-27,6.6-27.3,6.5-27.5z M4.5-28.6
				c0.4-0.6,0.8-1.2,1.2-1.7c0.1,0.8,0.2,1.6,0.3,2.4C5.6-28.2,5.1-28.5,4.5-28.6z"/>
		</g>
		<g id="Grupo_2050_2_" transform="translate(113.92 49.754)" class="st8">
			<path id="Trazado_44020_2_" class="st5" d="M-70.7-22.1C-70.7-22.1-70.7-22.2-70.7-22.1c0-0.1,0-0.3-0.1-0.4
				c-0.2-0.4-0.5-0.7-0.9-1c-0.4-0.4-0.9-1-1.5-1.1c-0.2,0-0.2,0.2-0.2,0.3c0,0,0,0.1,0,0.1c0.2,0.6,0.3,1.2,0.3,1.8
				c0,0.6,0,1.1-0.1,1.7c0,0.1,0,0.2,0.1,0.2c0,0.1,0.1,0.2,0.2,0.2c0.7-0.3,1.4-1,2-1.5C-70.7-21.9-70.7-22.1-70.7-22.1z M-72.7-21
				c0.2-0.9,0.2-1.9-0.2-2.8c0.3,0.3,0.6,0.5,0.9,0.8c0.2,0.2,0.5,0.5,0.7,0.7c0,0,0.1,0.1,0.1,0.1c-0.2,0.2-0.5,0.4-0.7,0.6
				C-72.2-21.4-72.5-21.2-72.7-21L-72.7-21z"/>
		</g>
		<path id="Trazado_44021_1_" class="st10" d="M28.4,26.5c-0.1-0.1-0.3-0.1-0.4,0c0,0-0.1,0-0.1,0c0,0-0.1,0-0.1,0
			c-0.3,0.1-0.4,0.5-0.4,0.8c0,0.4,0.3,0.9,0.6,0.9c0,0,0.1,0,0.1,0c0.1,0,0.3-0.1,0.4-0.1C29,27.8,29,26.8,28.4,26.5z M28.3,27.3
			L28.3,27.3C28.3,27.4,28.3,27.4,28.3,27.3L28.3,27.3z M28.3,27.3L28.3,27.3C28.3,27.3,28.3,27.3,28.3,27.3L28.3,27.3z M28.3,27.4
			C28.3,27.4,28.3,27.3,28.3,27.4C28.3,27.3,28.3,27.4,28.3,27.4L28.3,27.4z M28.3,27.3C28.3,27.3,28.3,27.3,28.3,27.3
			C28.3,27.3,28.3,27.3,28.3,27.3L28.3,27.3z"/>
		<path id="Trazado_44022_2_" class="st10" d="M29.4,23.3c-0.5-0.2-1.1,0.1-1.5,0.4c-0.4,0.3-0.8,1.1-0.4,1.6c0,0.1,0.1,0.1,0.2,0.1
			c0,0,0.1,0,0.1,0c0.6,0.1,1.2-0.1,1.7-0.5C29.9,24.5,30.1,23.6,29.4,23.3z"/>
		<g id="Grupo_2051_1_" transform="translate(41.52 71.263)" class="st8">
			<path id="Trazado_44023_1_" class="st5" d="M-15.7-41.4c-0.3-0.1-0.7,0-0.9,0.2c-0.1,0.1-0.2,0.2-0.2,0.3c0,0-0.1,0.1-0.1,0.2
				c-0.2,0.3-0.2,0.8,0.1,1.1c0.5,0.5,1.5-0.3,1.5-0.8C-15.2-40.8-15.3-41.2-15.7-41.4z M-15.8-40.4C-15.8-40.4-15.8-40.4-15.8-40.4
				C-15.8-40.4-15.8-40.4-15.8-40.4L-15.8-40.4z"/>
		</g>
	</g>
</g>
</svg>
